1moWTB qPCR-validations
…
1moWTB qPCR-validations

Jordi Camps

3 oktober 2017

Import and prepare data

#Import data
qpcr <- read_qpcr("Data/2017-09-18 Smartseq2 Hanne.xlsx")

## # A tibble: 384 x 8
##    Position_well   Sample      Gene                 CT CT_threshold
##            <chr>    <chr>     <chr>              <chr>        <dbl>
##  1            A1 Sample 1  Target 1       Undetermined   0.04000000
##  2            A2 Sample 1  Target 2          17.322996   0.04000000
##  3            A3 Sample 1  Target 3 35.382060000000003   0.04000000
##  4            A4 Sample 1  Target 4 13.633183000000001   0.04000000
##  5            A5 Sample 1  Target 5          19.715712   0.04000000
##  6            A6 Sample 1  Target 6 23.243483999999999   0.04000000
##  7            A7 Sample 1  Target 7       Undetermined   0.04953527
##  8            A8 Sample 1  Target 8 17.978387999999999   0.04000000
##  9            A9 Sample 1  Target 9       Undetermined   0.04000000
## 10           A10 Sample 1 Target 10 35.948054999999997   0.04000000
## # ... with 374 more rows, and 3 more variables: Tm1 <dbl>, Tm2 <dbl>,
## #   Tm3 <dbl>
…
ann_genes <- read_annotation("Data/Annotations_primers.xlsx")

## # A tibble: 24 x 3
##         Gene Primer   HKG
##        <chr>  <chr> <lgl>
##  1  Target 1  Rab35  TRUE
##  2  Target 2  Psma3  TRUE
##  3  Target 3 Rpl13a  TRUE
##  4  Target 4    Dcn FALSE
##  5  Target 5    Lum FALSE
##  6  Target 6   Cd82 FALSE
##  7  Target 7   Chrn FALSE
##  8  Target 8   Plp1 FALSE
##  9  Target 9  Fgfr4 FALSE
## 10 Target 10  Cdh19 FALSE
## # ... with 14 more rows

#Merge and tidy
join_and_clean_qpcr(qpcr)

## Warning in join_and_clean_qpcr(qpcr): NAs introduced by coercion

## # A tibble: 384 x 13
##    Position_well   Sample      Gene       CT CT_threshold      Tm1
##            <chr>   <fctr>    <fctr>    <dbl>        <dbl>    <dbl>
##  1            A1 Sample 1  Target 1       NA   0.04000000 63.94588
##  2            A2 Sample 1  Target 2 17.32300   0.04000000 78.95898
##  3            A3 Sample 1  Target 3 35.38206   0.04000000 82.31012
##  4            A4 Sample 1  Target 4 13.63318   0.04000000 79.49516
##  5            A5 Sample 1  Target 5 19.71571   0.04000000 80.83562
##  6            A6 Sample 1  Target 6 23.24348   0.04000000 83.91866
##  7            A7 Sample 1  Target 7       NA   0.04953527 93.70399
##  8            A8 Sample 1  Target 8 17.97839   0.04000000 84.05271
##  9            A9 Sample 1  Target 9       NA   0.04000000 91.69331
## 10           A10 Sample 1 Target 10 35.94805   0.04000000 76.14402
## # ... with 374 more rows, and 7 more variables: Tm2 <dbl>, Tm3 <dbl>,
## #   Condition <fctr>, Cell_type <fctr>, Mouse <fctr>, Primer <fctr>,
## #   HKG <fctr>
## Classes 'tbl_df', 'tbl' and 'data.frame':    384 obs. of  13 variables:
##  $ Position_well: chr  "A1" "A2" "A3" "A4" ...
##  $ Sample       : Factor w/ 16 levels "Sample 1","Sample 10",..: 1 1 1 1 1 1 1 1 1 1 ...
##  $ Gene         : Factor w/ 24 levels "Target 1","Target 10",..: 1 12 18 19 20 21 22 23 24 2 ...
##  $ CT           : num  NA 17.3 35.4 13.6 19.7 ...
##  $ CT_threshold : num  0.04 0.04 0.04 0.04 0.04 ...
…
#Filter sample
filter_sample(qpcr, "Sample 11")

## # A tibble: 24 x 13
##    Position_well    Sample      Gene        CT CT_threshold      Tm1
##            <chr>    <fctr>    <fctr>     <dbl>        <dbl>    <dbl>
##  1            K1 Sample 11  Target 1 34.221450   0.04000000 85.12508
##  2            K2 Sample 11  Target 2 11.715507   0.04000000 78.95898
##  3            K3 Sample 11  Target 3 16.609978   0.04000000 82.57821
##  4            K4 Sample 11  Target 4  9.810472   0.04000000 79.49516
##  5            K5 Sample 11  Target 5 10.170481   0.04000000 80.83562
##  6            K6 Sample 11  Target 6 36.371640   0.04000000 83.91866
##  7            K7 Sample 11  Target 7        NA   0.04953527 71.72052
##  8            K8 Sample 11  Target 8 20.591354   0.04000000 84.05271
##  9            K9 Sample 11  Target 9        NA   0.04000000 68.23534
## 10           K10 Sample 11 Target 10 28.094217   0.04000000 76.14402
## # ... with 14 more rows, and 7 more variables: Tm2 <dbl>, Tm3 <dbl>,
## #   Condition <fctr>, Cell_type <fctr>, Mouse <fctr>, Primer <fctr>,
## #   HKG <fctr>

filter_sample(qpcr, "Sample 1")

## # A tibble: 24 x 13
##    Position_well   Sample      Gene       CT CT_threshold      Tm1
##            <chr>   <fctr>    <fctr>    <dbl>        <dbl>    <dbl>
##  1            A1 Sample 1  Target 1       NA   0.04000000 63.94588
##  2            A2 Sample 1  Target 2 17.32300   0.04000000 78.95898
##  3            A3 Sample 1  Target 3 35.38206   0.04000000 82.31012
##  4            A4 Sample 1  Target 4 13.63318   0.04000000 79.49516
##  5            A5 Sample 1  Target 5 19.71571   0.04000000 80.83562
##  6            A6 Sample 1  Target 6 23.24348   0.04000000 83.91866
##  7            A7 Sample 1  Target 7       NA   0.04953527 93.70399
##  8            A8 Sample 1  Target 8 17.97839   0.04000000 84.05271
##  9            A9 Sample 1  Target 9       NA   0.04000000 91.69331
## 10           A10 Sample 1 Target 10 35.94805   0.04000000 76.14402
## # ... with 14 more rows, and 7 more variables: Tm2 <dbl>, Tm3 <dbl>,
## #   Condition <fctr>, Cell_type <fctr>, Mouse <fctr>, Primer <fctr>,
## #   HKG <fctr>

filter_sample(qpcr, "Sample 4")

## # A tibble: 24 x 13
##    Position_well   Sample      Gene       CT CT_threshold      Tm1   Tm2
##            <chr>   <fctr>    <fctr>    <dbl>        <dbl>    <dbl> <dbl>
##  1            D1 Sample 4  Target 1       NA   0.04000000 93.43590    NA
##  2            D2 Sample 4  Target 2 19.85650   0.04000000 78.82494    NA
##  3            D3 Sample 4  Target 3       NA   0.04000000 63.27565    NA
##  4            D4 Sample 4  Target 4 17.28338   0.04000000 79.49516    NA
##  5            D5 Sample 4  Target 5 27.85804   0.04000000 80.70157    NA
##  6            D6 Sample 4  Target 6       NA   0.04000000 61.26497    NA
##  7            D7 Sample 4  Target 7       NA   0.04953527 62.20329    NA
##  8            D8 Sample 4  Target 8 16.40524   0.04000000 83.91866    NA
##  9            D9 Sample 4  Target 9       NA   0.04000000 61.39901    NA
## 10           D10 Sample 4 Target 10 20.54824   0.04000000 76.14402    NA
## # ... with 14 more rows, and 6 more variables: Tm3 <dbl>,
## #   Condition <fctr>, Cell_type <fctr>, Mouse <fctr>, Primer <fctr>,
## #   HKG <fctr>

filter_sample(qpcr, "Sample 16")

## # A tibble: 24 x 13
##    Position_well    Sample      Gene    CT CT_threshold      Tm1      Tm2
##            <chr>    <fctr>    <fctr> <dbl>        <dbl>    <dbl>    <dbl>
##  1            P1 Sample 16  Target 1    NA   0.04000000 61.39901       NA
##  2            P2 Sample 16  Target 2    NA   0.04000000 93.30185       NA
##  3            P3 Sample 16  Target 3    NA   0.04000000 91.82735       NA
##  4            P4 Sample 16  Target 4    NA   0.04000000 63.67778       NA
##  5            P5 Sample 16  Target 5    NA   0.04000000 61.39901 89.95071
##  6            P6 Sample 16  Target 6    NA   0.04000000 61.26497       NA
##  7            P7 Sample 16  Target 7    NA   0.04953527 61.80115       NA
##  8            P8 Sample 16  Target 8    NA   0.04000000 85.92935       NA
##  9            P9 Sample 16  Target 9    NA   0.04000000 62.06924       NA
## 10           P10 Sample 16 Target 10    NA   0.04000000 60.72878       NA
## # ... with 14 more rows, and 6 more variables: Tm3 <dbl>,
## #   Condition <fctr>, Cell_type <fctr>, Mouse <fctr>, Primer <fctr>,
## #   HKG <fctr>
…
#Double meltcurve peaks
list_double_meltcurves(endog)

## # A tibble: 24 x 5
##    Primer       CT      Tm1      Tm2      Tm3
##    <fctr>    <dbl>    <dbl>    <dbl>    <dbl>
##  1   Alpl 40.00000 70.51411 61.80115 91.02308
##  2   Cd82 40.00000 71.72052 88.07407 61.26497
##  3   Cd82 40.00000 71.45243 61.39901 92.76567
##  4   Chrn 40.00000 93.70399 62.20329 86.06339
##  5   Chrn 40.00000 71.98861 91.29117 61.13092
##  6   Chrn 40.00000 71.98861 90.48689 66.35870
##  7   Chrn 40.00000 71.58647 86.73362 82.44416
##  8  Col20 38.43021 80.29944 70.91624       NA
##  9  Col20 38.01198 89.95071 83.78462 69.17365
## 10  Fgfr4 40.00000 91.69331 84.58889 63.40969
## # ... with 14 more rows
…
