MC technical replicates
…
MC technical replicates

Jordi Camps

31 oktober 2017

Import and prepare data

#Import data
qpcr <- read_qpcr("Data/2017-10-05 FAP-C2C12-Muscle qPCR validation MC.xls")

## Warning in read_qpcr("Data/2017-10-05 FAP-C2C12-Muscle qPCR validation
## MC.xls"): NAs introduced by coercion

## # A tibble: 368 x 8
##    Position_well    Sample   Target      CT CT_threshold      Tm1   Tm2
##            <chr>     <chr>    <chr>   <dbl>        <dbl>    <dbl> <dbl>
##  1            A1  Sample 1 Target 1 23.3215         0.01 79.08876    NA
##  2            A2  Sample 2 Target 1 20.8901         0.01 79.22278    NA
##  3            A3  Sample 3 Target 1 20.0685         0.01 79.22278    NA
##  4            A4  Sample 4 Target 1 20.1314         0.01 79.22278    NA
##  5            A5  Sample 5 Target 1 19.6811         0.01 79.22278    NA
##  6            A6  Sample 6 Target 1 19.7585         0.01 79.22278    NA
##  7            A7  Sample 7 Target 1 21.6181         0.01 79.22278    NA
##  8            A8  Sample 8 Target 1 20.4915         0.01 79.22278    NA
##  9            A9  Sample 9 Target 1 21.1776         0.01 79.22278    NA
## 10           A10 Sample 10 Target 1 21.0934         0.01 79.22278    NA
## # ... with 358 more rows, and 1 more variables: Tm3 <dbl>

#Import annotation
ann_samples <- read_annotation("Data/Annotations_samples_124839_technical_replicates.xlsx")

## # A tibble: 24 x 6
##       Sample Blanc Cell_type  Condition    Mouse Passage
##        <chr> <chr>     <chr>      <chr>    <chr>   <dbl>
##  1  Sample 1     N        TA    healthy C57BL6-1      NA
##  2  Sample 2     N        TA    healthy C57BL6-2      NA
##  3  Sample 3     N        TA    healthy C57BL6-3      NA
##  4  Sample 4     N        TA    healthy C57BL6-4      NA
##  5  Sample 5     N        TA    healthy C57BL6-5      NA
##  6  Sample 6     N        TA    healthy C57BL6-6      NA
##  7  Sample 7     N        TA dystrophic    Sgca1      NA
##  8  Sample 8     N        TA dystrophic    Sgca3      NA
##  9  Sample 9     N        TA dystrophic    Sgca4      NA
## 10 Sample 10     N        TA dystrophic    Sgca5      NA
## # ... with 14 more rows
…
Save by saving this function into qpcr dataframe

qpcr <- qc_tech_rep(qpcr)
# Change remove Avg from col names
colnames(qpcr) <- c("Target", "Sample", "CT", "SD_CT", "Tm1", "SD_Tm1", "Tm2", "SD_Tm2")

Merge and tidy

join_and_clean_qpcr(qpcr)

## # A tibble: 113 x 15
##      Target    Sample       CT      SD_CT      Tm1   SD_Tm1   Tm2 SD_Tm2
##      <fctr>    <fctr>    <dbl>      <dbl>    <dbl>    <dbl> <dbl>  <dbl>
##  1 Target 1  Sample 1 23.18400 0.19445436 79.15577 0.094765   NaN    NaN
##  2 Target 1 Sample 10 20.93845 0.21913239 79.22278 0.000000   NaN    NaN
##  3 Target 1 Sample 11 23.18895 0.12692567 79.22278 0.000000   NaN    NaN
##  4 Target 1 Sample 12 30.42485 0.33424938 79.22278 0.000000   NaN    NaN
##  5 Target 1 Sample 13 19.33690 0.14113851 79.28979 0.094765   NaN    NaN
##  6 Target 1 Sample 14 19.94545 0.04631549 79.22278 0.000000   NaN    NaN
##  7 Target 1 Sample 15 19.75700 0.25441702 79.15577 0.094765   NaN    NaN
##  8 Target 1 Sample 16 20.07790 0.08753982 79.08876 0.000000   NaN    NaN
##  9 Target 1 Sample 17 19.61100 0.04313351 79.08876 0.000000   NaN    NaN
## 10 Target 1 Sample 18 19.37280 0.01216224 79.08876 0.000000   NaN    NaN
## # ... with 103 more rows, and 7 more variables: Blanc <fctr>,
## #   Cell_type <fctr>, Condition <fctr>, Mouse <fctr>, Passage <fctr>,
## #   Gene <fctr>, HKG <fctr>
## Classes 'tbl_df', 'tbl' and 'data.frame':    113 obs. of  15 variables:
##  $ Target   : Factor w/ 6 levels "Target 1","Target 2",..: 1 1 1 1 1 1 1 1 1 1 ...
##  $ Sample   : Factor w/ 22 levels "Sample 1","Sample 10",..: 1 2 3 4 5 6 7 8 9 10 ...
##  $ CT       : num  23.2 20.9 23.2 30.4 19.3 ...
##  $ SD_CT    : num  0.194 0.219 0.127 0.334 0.141 ...
##  $ Tm1      : num  79.2 79.2 79.2 79.2 79.3 ...
…
