qpcrviia7 analysis with technical replicates
…
Prepare files

Import data

Data needs to be imported into the R session, we will use our own functions for this matter. read_qpcr() reads the raw excel file obtained from the Viia7 after qPCR and read_annotation reads our annotation files.

Import raw data with read_qpcr()

qpcr <- read_qpcr("data/2017-10-05 FAP-C2C12-Muscle qPCR validation MC.xls")
#> Warning in read_qpcr("data/2017-10-05 FAP-C2C12-Muscle qPCR validation
#> MC.xls"): NAs introduced by coercion
#> # A tibble: 368 x 8
#>    Position_well    Sample   Target      CT CT_threshold      Tm1   Tm2
#>            <chr>     <chr>    <chr>   <dbl>        <dbl>    <dbl> <dbl>
#>  1            A1  Sample 1 Target 1 23.3215         0.01 79.08876    NA
#>  2            A2  Sample 2 Target 1 20.8901         0.01 79.22278    NA
#>  3            A3  Sample 3 Target 1 20.0685         0.01 79.22278    NA
#>  4            A4  Sample 4 Target 1 20.1314         0.01 79.22278    NA
#>  5            A5  Sample 5 Target 1 19.6811         0.01 79.22278    NA
#>  6            A6  Sample 6 Target 1 19.7585         0.01 79.22278    NA
#>  7            A7  Sample 7 Target 1 21.6181         0.01 79.22278    NA
#>  8            A8  Sample 8 Target 1 20.4915         0.01 79.22278    NA
#>  9            A9  Sample 9 Target 1 21.1776         0.01 79.22278    NA
#> 10           A10 Sample 10 Target 1 21.0934         0.01 79.22278    NA
#> # ... with 358 more rows, and 1 more variables: Tm3 <dbl>

Import annotation with read_annotation()

ann_samples <- read_annotation("data/Annotations_samples_124839_technical_replicates.xlsx")
#> # A tibble: 24 x 6
#>       Sample Blanc Cell_type  Condition    Mouse Passage
#>        <chr> <chr>     <chr>      <chr>    <chr>   <dbl>
#>  1  Sample 1     N        TA    healthy C57BL6-1      NA
#>  2  Sample 2     N        TA    healthy C57BL6-2      NA
#>  3  Sample 3     N        TA    healthy C57BL6-3      NA
#>  4  Sample 4     N        TA    healthy C57BL6-4      NA
#>  5  Sample 5     N        TA    healthy C57BL6-5      NA
#>  6  Sample 6     N        TA    healthy C57BL6-6      NA
#>  7  Sample 7     N        TA dystrophic    Sgca1      NA
#>  8  Sample 8     N        TA dystrophic    Sgca3      NA
#>  9  Sample 9     N        TA dystrophic    Sgca4      NA
#> 10 Sample 10     N        TA dystrophic    Sgca5      NA
#> # ... with 14 more rows
…
