Muscle_progenitors_single_cell_validations
…
Jordi Camps

October 24, 2017

Load librararies

Import and prepare data

#Import data
qpcr <- read_qpcr("Data/2017-09-20 124839 FAP-C2C12-Muscle qPCR validation MC.xls", sheet = 3)

## Warning in read_qpcr("Data/2017-09-20 124839 FAP-C2C12-Muscle qPCR
## validation MC.xls", : NAs introduced by coercion

## # A tibble: 368 x 8
##    Position_well    Sample   Primer      CT CT_threshold      Tm1   Tm2
##            <chr>     <chr>    <chr>   <dbl>        <dbl>    <dbl> <dbl>
##  1            A1  Sample 1 Target 1 21.2551         0.04 79.13522    NA
##  2            A2  Sample 2 Target 1 18.9371         0.04 79.13522    NA
##  3            A3  Sample 3 Target 1 17.7691         0.04 79.13522    NA
##  4            A4  Sample 4 Target 1 17.9764         0.04 79.26957    NA
##  5            A5  Sample 5 Target 1 17.7402         0.04 79.26957    NA
##  6            A6  Sample 6 Target 1 18.0660         0.04 79.13522    NA
##  7            A7  Sample 7 Target 1 19.6004         0.04 79.26957    NA
##  8            A8  Sample 8 Target 1 18.6120         0.04 79.26957    NA
##  9            A9  Sample 9 Target 1 19.4874         0.04 79.26957    NA
## 10           A10 Sample 10 Target 1 19.1846         0.04 79.26957    NA
## # ... with 358 more rows, and 1 more variables: Tm3 <dbl>

#Import annotation
ann_samples <- read_annotation("Data/Annotations_124839_samples.xlsx")

## # A tibble: 24 x 5
##       Sample Cell_type  Condition    Mouse Passage
##        <chr>     <chr>      <chr>    <chr>   <dbl>
##  1  Sample 1        TA    healthy C57BL6-1      NA
##  2  Sample 2        TA    healthy C57BL6-2      NA
##  3  Sample 3        TA    healthy C57BL6-3      NA
##  4  Sample 4        TA    healthy C57BL6-4      NA
##  5  Sample 5        TA    healthy C57BL6-5      NA
##  6  Sample 6        TA    healthy C57BL6-6      NA
##  7  Sample 7        TA dystrophic    Sgca1      NA
##  8  Sample 8        TA dystrophic    Sgca3      NA
##  9  Sample 9        TA dystrophic    Sgca4      NA
## 10 Sample 10        TA dystrophic    Sgca5      NA
## # ... with 14 more rows
…
#Merge and tidy
join_and_clean_qpcr(qpcr)

## # A tibble: 368 x 14
##    Position_well    Sample   Primer      CT CT_threshold      Tm1   Tm2
##            <chr>    <fctr>   <fctr>   <dbl>        <dbl>    <dbl> <dbl>
##  1            A1  Sample 1 Target 1 21.2551         0.04 79.13522    NA
##  2            A2  Sample 2 Target 1 18.9371         0.04 79.13522    NA
##  3            A3  Sample 3 Target 1 17.7691         0.04 79.13522    NA
##  4            A4  Sample 4 Target 1 17.9764         0.04 79.26957    NA
##  5            A5  Sample 5 Target 1 17.7402         0.04 79.26957    NA
##  6            A6  Sample 6 Target 1 18.0660         0.04 79.13522    NA
##  7            A7  Sample 7 Target 1 19.6004         0.04 79.26957    NA
##  8            A8  Sample 8 Target 1 18.6120         0.04 79.26957    NA
##  9            A9  Sample 9 Target 1 19.4874         0.04 79.26957    NA
## 10           A10 Sample 10 Target 1 19.1846         0.04 79.26957    NA
## # ... with 358 more rows, and 7 more variables: Tm3 <dbl>,
## #   Cell_type <fctr>, Condition <fctr>, Mouse <fctr>, Passage <fctr>,
## #   Gene <fctr>, HKG <fctr>
## Classes 'tbl_df', 'tbl' and 'data.frame':    368 obs. of  14 variables:
##  $ Position_well: chr  "A1" "A2" "A3" "A4" ...
##  $ Sample       : Factor w/ 23 levels "Sample 1","Sample 10",..: 1 12 17 18 19 20 21 22 23 2 ...
##  $ Primer       : Factor w/ 16 levels "Target 1","Target 10",..: 1 1 1 1 1 1 1 1 1 1 ...
##  $ CT           : num  21.3 18.9 17.8 18 17.7 ...
##  $ CT_threshold : num  0.04 0.04 0.04 0.04 0.04 ...
…
